{
  "nl": {
    "app": {
      "app.roles.Medewerker.description": "Medewerkers van de gemeente",
      "app.roles.Secretariaat.description": "Secretariaten van de gemeente",
      "app.roles.Receptionist.description": "Receptionisten van de gemeente",
      "description": "Deze app was gemaakt voor de gemeente Amersfoort",
      "name": "Bezoekers"
    },
    "messageIds": {
      "emailBody": "Beste bezoeker,\n\nHierbij bevestig ik uw afspraak op {datetime, date, long} om {datetime, time, ::k::m} op {location}.\n\nU heeft een afspraak met {visitedName}.\n\nGraag verzoeken we u om u te melden bij de receptie bij aankomst. Hier ontvangt u een bezoekersbadge die u na uw bezoek weer dient in te leveren bij de receptie.\n\nMet vriendelijke groet,\\\nDe receptie",
      "emailSubject": "Bevestiging afspraak",
      "time": "Tijd"
    }
  },
  "en": {
    "app": {
      "app.roles.Medewerker.description": "Employees of the municipality",
      "app.roles.Secretariaat.description": "Secretaries of the municipality",
      "app.roles.Receptionist.description": "Receptionists of the municipality",
      "pages.bezoeker-aanmelden": "Register visitor",
      "pages.bezoekersoverzicht": "Visitor overview",
      "pages.afspraak-aanpassen": "Change appointment",
      "pages.bezoekers": "Visitors",
      "description": "This app was created for the municipality of Amersfoort",
      "name": "Visitors"
    },
    "messageIds": {
      "emailBody": "Dear visitor,\n\nThis is a confirmation for your appointment on {datetime, date, long} at {datetime, time, ::k::m} at {location}.\n\nYou have an appointment with {visitedName}.\n\nWe kindly request you to report at the reception on arrival. Here you will be given a visitor badge, which you should return afterwards.\n\nKind regards,\\\nThe reception",
      "emailSubject": "Confirmation of appointment",
      "time": "Time"
    }
  }
}
